{
    "page": { 
        "model": {
           "title": "Lizzie Morgan",
           "instagram": "",
           "collections": [
                                {
                        "name": "digital",
                        "title": "Digital",
                        "images": [
                                                            "assets\/other\/girl-1848963_1920_digital.jpg"                                  
                                                            ]                    
                    },  
                               {
                        "name": "portfolio",
                        "title": "Portfolio",
                        "images": [
                                                            "assets\/other\/girl-1848961_1920.jpg"                                ,  
                                                                "assets\/other\/girl-1848962_1920.jpg"                                  
                                                            ]                    
                    }  
                      ],

           "comment": null,


            "metrics": {
                                    "m_height": {
                        "title": "Height",
                        "value": "5'10\""                    }, 
                                    "m_bust": {
                        "title": "Bust",
                        "value": "32\""                    }, 
                                    "m_waist": {
                        "title": "Waist",
                        "value": "24\""                    }, 
                                    "m_hip": {
                        "title": "Hip",
                        "value": "35\""                    }, 
                                    "m_shoe": {
                        "title": "Shoe",
                        "value": "9"                    }, 
                                    "m_dress": {
                        "title": "Dress",
                        "value": "3"                    }, 
                                    "m_cup": {
                        "title": "Cup",
                        "value": "a\/b"                    }, 
                                    "m_hair": {
                        "title": "Hair",
                        "value": "Brown"                    }, 
                                    "m_eyes": {
                        "title": "Eyes",
                        "value": "Brown"                    } 
                            }
        }
    }
}