{
   "page": {
        "title": "Registration Form",
		"description": "<p>Fill form below and we'll contact you.<\/p>",
        "fieldset": [
                            {
                    "title": "Personal Information",
                    "input": [
                                                    { 
                                "name": "first-name",
                                "title": "First Name",
                                "placeholder": "",
                                "error_empty": "First name is required.",
                                "error_invalid": "First is too long.",
                                "required": true,
                                                                                                    "type": "text",
                                                                                                    "options": [
                                    ]

                             }
                             , 
                                                    { 
                                "name": "last-name",
                                "title": "Last Name",
                                "placeholder": "",
                                "error_empty": "Last Name is required",
                                "error_invalid": "Last name is too long.",
                                "required": true,
                                                                                                    "type": "text",
                                                                                                    "options": [
                                    ]

                             }
                             , 
                                                    { 
                                "name": "gender",
                                "title": "Gender",
                                "placeholder": "",
                                "error_empty": "Gender is required.",
                                "error_invalid": "This gender is not an option.",
                                "required": true,
                                                                "options": [
                                    "Male","Female"]

                             }
                             , 
                                                    { 
                                "name": "ethnicity",
                                "title": "Ethnicity",
                                "placeholder": "",
                                "error_empty": "Ethnicity is required.",
                                "error_invalid": "This options was not provided.",
                                "required": true,
                                                                "options": [
                                    "Asian","Black \/ African descent","East Indian","Latino \/ Hispanic","Middle Eastern","Native American","Pacific Islander","White \/ Caucasian","Multi-ethnic","Mediterranean","Central American","Aboriginal Australian"]

                             }
                             , 
                                                    { 
                                "name": "date-of-birth",
                                "title": "Date of Birth",
                                "placeholder": "YYYY-MM-DD",
                                "error_empty": "Date of birth is required.",
                                "error_invalid": "Date of birth is non-existant or incorrect format.",
                                "required": true,
                                                                                                    "type": "date",
                                                                                                    "options": [
                                    ]

                             }
                              
                                            ]
                }, 
                            {
                    "title": "Metrics",
                    "input": [
                                                    { 
                                "name": "hair",
                                "title": "Hair",
                                "placeholder": "",
                                "error_empty": "Hair type is required.",
                                "error_invalid": "",
                                "required": true,
                                                                "options": [
                                    "Auburn","Bald","Black","Blonde","Blonde - Ash","Blonde - Dark","Blonde - Light","Blonde - Platinum","Blonde - Strawberry","Brown","Brown - Dark","Brown - Light","Brown - Strawberry","Grey","Pink","Red","Salt & Pepper","Shaved","White"]

                             }
                             , 
                                                    { 
                                "name": "eyes",
                                "title": "Eyes",
                                "placeholder": "",
                                "error_empty": "Eye color is required.",
                                "error_invalid": "",
                                "required": true,
                                                                "options": [
                                    "Black","Blue","Blue-Green","Blue-Grey","Brown","Green","Green-Grey","Grey","Hazel"]

                             }
                             , 
                                                    { 
                                "name": "shoe",
                                "title": "Shoe",
                                "placeholder": "",
                                "error_empty": "Shoe size is required.",
                                "error_invalid": "",
                                "required": true,
                                                                "options": [
                                    "5.0 US \/ 4.0 UK \/ 37.0 EU","5.5 US \/ 4.5 UK \/ 37.5 EU","6.0 US \/ 5.0 UK \/ 38.0 EU","6.5 US \/ 5.5 UK \/ 38.5 EU","7.0 US \/ 6.0 UK \/ 39.5 EU","7.5 US \/ 6.5 UK \/ 40.0 EU","8.0 US \/ 7.0 UK \/ 40.5 EU","8.5 US \/ 7.5 UK \/ 41.5 EU","9.0 US \/ 8.0 UK \/ 42.0 EU","9.5 US \/ 8.5 UK \/ 42.5 EU","10.0 US \/ 9.0 UK \/ 43.0 EU","10.5 US \/ 9.5 UK \/ 44.0 EU","11.0 US \/ 10.0 UK \/ 44.5 EU","11.5 US \/ 10.5 UK \/ 45.0 EU","12.0 US \/ 11.0 UK \/ 45.5 EU","12.5 US \/ 11.5 UK \/ 46.5 EU","13.0 US \/ 12.0 UK \/ 47.0 EU","13.5 US \/ 12.5 UK \/ 48.0 EU","14.0 US \/ 13.0 UK \/ 49.5 EU","15.0 US \/ 14.0 UK \/ 50.5 EU","16.0 US \/ 15.0 UK \/ 52.0 EU"]

                             }
                             , 
                                                    { 
                                "name": "height",
                                "title": "Height",
                                "placeholder": "",
                                "error_empty": "Height is required.",
                                "error_invalid": "",
                                "required": true,
                                                                "options": [
                                    "4' 11\" \/ 149 cm","5' 0\" \/ 152 cm","5' 1\" \/ 154 cm","5' 2\" \/ 157 cm","5' 3\" \/ 160 cm","5' 4\" \/ 162 cm","5' 5\" \/ 165 cm","5' 6\" \/ 167 cm","5' 7\" \/ 170 cm","5' 8\" \/ 172 cm","5' 9\" \/ 175 cm","5' 10\" \/ 177 cm","5' 11\" \/ 180 cm","6' 0\" \/ 182 cm","6' 1\" \/ 185 cm","6' 2\" \/ 187 cm","6' 3\" \/ 190 cm","6' 4\" \/ 193 cm","6' 5\" \/ 195 cm","6' 6\" \/ 198 cm","6' 7\" \/ 200 cm","6' 8\" \/ 203 cm","6' 9\" \/ 205 cm","6' 10\" \/ 208 cm"]

                             }
                              
                                            ]
                }, 
                            {
                    "title": "Contact Information",
                    "input": [
                                                    { 
                                "name": "email",
                                "title": "Email",
                                "placeholder": "",
                                "error_empty": "Email is required.",
                                "error_invalid": "Your email is not valid. Please try again.",
                                "required": true,
                                                                                                    "type": "email",
                                                                                                    "options": [
                                    ]

                             }
                             , 
                                                    { 
                                "name": "phone",
                                "title": "Phone",
                                "placeholder": "",
                                "error_empty": "Phone is required.",
                                "error_invalid": "Your phone number is too short.",
                                "required": true,
                                                                                                    "type": "tel",
                                                                                                    "options": [
                                    ]

                             }
                             , 
                                                    { 
                                "name": "country",
                                "title": "Country",
                                "placeholder": "",
                                "error_empty": "Country of origin is required.",
                                "error_invalid": "",
                                "required": true,
                                                                "options": [
                                    "Afghanistan","Albania","Algeria","American Samoa","Andorra","Angola","Anguilla","Antarctica","Antigua and Barbuda","Argentina","Armenia","Aruba","Australia","Austria","Azerbaijan","Bahamas","Bahrain","Bangladesh","Barbados","Belarus","Belgium","Belize","Benin","Bermuda","Bhutan","Bolivia","Bosnia and Herzegovina","Botswana","Brazil","Brunei","Bulgaria","Burkina Faso","Burundi","Cambodia","Cameroon","Canada","Cape Verde","Cayman Islands","Central African Republic","Chad","Chile","China","Christmas Islands","Cocos (Keeling) Islands","Colombia","Comoros","Congo","Cook Island","Costa Rica","Cote D'Ivoire","Croatia","Cuba","Cyprus","Czech Republic","Denmark","Djibouti","Dominica","Dominican Republic","East Timor","Ecuador","Egypt","El Salvador","Equatorial Guinea","Eritrea","Estonia","Ethiopia","Falkland Islands","Faroe Islands","Federated States of Micronesia","Fiji","Finland","France","France, Metropolitan","French Guiana","French Polynesia","French Southern Territories","Gabon","Gambia","Georgia","Germany","Ghana","Gibraltar","Greece","Greenland","Grenada","Guadeloupe","Guam","Guatemala","Guinea","Guinea-Bissau","Guyana","Haiti","Heard and McDonald Islands","Honduras","Hong Kong","Hungary","Iceland","India","Indonesia","Iran","Iraq","Ireland","Israel","Italy","Jamaica","Japan","Jordan","Kazakhstan","Kenya","Kiribati","Korea, North","Korea, South","Kuwait","Kyrgyzstan","Laos","Latvia","Lebanon","Lesotho","Liberia","Libya","Liechtenstein","Lithuania","Luxembourg","Macau","Macedonia","Madagascar","Malawi","Malaysia","Maldives","Mali","Malta","Marshall Islands","Martinique","Mauritania","Mauritius","Mayotte","Mexico","Moldova","Monaco","Mongolia","Montserrat","Morocco","Mozambique","Myanmar","Namibia","Nauru","Nepal","Netherlands","Netherlands Antilles","New Caledonia","New Zealand","Nicaragua","Niger","Nigeria","Niue","Norfolk Island","Northern Mariana Islands","Norway","Oman","Pakistan","Palau","Panama","Papua New Guinea","Paraguay","Peru","Philippines","Pitcairn","Poland","Portugal","Puerto Rico","Qatar","Reunion","Romania","Russia","Rwanda","Saint Kitts and Nevis","Saint Lucia","Saint Vincent and the Grenadines","Samoa","San Marino","Sao Tome and Principe","Saudi Arabia","Senegal","Seychelles","Sierra Leone","Singapore","Slovakia","Slovenia","Solomon Islands","Somalia","South Africa","South Georgia and South Sandwich Islands","Spain","Sri Lanka","St. Helena","St. Pierre and Miquelon","Sudan","Suriname","Svalbard and Jan Mayen Islands","Swaziland","Sweden","Switzerland","Syria","Taiwan","Tajikistan","Tanzania","Thailand","Togo","Tokelau","Tonga","Trinidad and Tobago","Tunisia","Turkey","Turkmenistan","Turks and Caicos Islands","Tuvalu","Uganda","Ukraine","United Arab Emirates","United Kingdom","United States","United States Minor Outlying Islands","Uruguay","Uzbekistan","Vanuatu","Vatican City","Venezuela","Vietnam","Virgin Islands (British)","Virgin Islands (United States)","Wallis and Futuna Islands","Western Sahara","Yemen","Yugoslavia","Zaire","Zambia","Zimbabwe"]

                             }
                             , 
                                                    { 
                                "name": "city",
                                "title": "City",
                                "placeholder": "",
                                "error_empty": "City is required.",
                                "error_invalid": "",
                                "required": true,
                                                                                                    "type": "text",
                                                                                                    "options": [
                                    ]

                             }
                             , 
                                                    { 
                                "name": "state",
                                "title": "State",
                                "placeholder": "",
                                "error_empty": "",
                                "error_invalid": "",
                                "required": false,
                                                                                                    "type": "text",
                                                                                                    "options": [
                                    ]

                             }
                              
                                            ]
                } 
                    ]
   }
}